%YAML 1.1
%TAG !u! tag:unity3d.com,2011:
--- !u!1001 &100100000
Prefab:
  m_ObjectHideFlags: 1
  serializedVersion: 2
  m_Modification:
    m_TransformParent: {fileID: 0}
    m_Modifications: []
    m_RemovedComponents: []
  m_SourcePrefab: {fileID: 0}
  m_RootGameObject: {fileID: 1491895858374956}
  m_IsPrefabAsset: 1
--- !u!1 &1491895858374956
GameObject:
  m_ObjectHideFlags: 0
  m_CorrespondingSourceObject: {fileID: 0}
  m_PrefabInternal: {fileID: 100100000}
  serializedVersion: 6
  m_Component:
  - component: {fileID: 4225242658495724}
  - component: {fileID: 114070421201859978}
  m_Layer: 0
  m_Name: EnemyWaves
  m_TagString: Untagged
  m_Icon: {fileID: 0}
  m_NavMeshLayer: 0
  m_StaticEditorFlags: 0
  m_IsActive: 1
--- !u!4 &4225242658495724
Transform:
  m_ObjectHideFlags: 1
  m_CorrespondingSourceObject: {fileID: 0}
  m_PrefabInternal: {fileID: 100100000}
  m_GameObject: {fileID: 1491895858374956}
  m_LocalRotation: {x: -0, y: -0, z: -0, w: 1}
  m_LocalPosition: {x: 0, y: 0, z: 0}
  m_LocalScale: {x: 1, y: 1, z: 1}
  m_Children: []
  m_Father: {fileID: 0}
  m_RootOrder: 0
  m_LocalEulerAnglesHint: {x: 0, y: 0, z: 0}
--- !u!114 &114070421201859978
MonoBehaviour:
  m_ObjectHideFlags: 1
  m_CorrespondingSourceObject: {fileID: 0}
  m_PrefabInternal: {fileID: 100100000}
  m_GameObject: {fileID: 1491895858374956}
  m_Enabled: 1
  m_EditorHideFlags: 0
  m_Script: {fileID: 11500000, guid: 27af4328e733b6647bf97c39c1931782, type: 3}
  m_Name: 
  m_EditorClassIdentifier: 
  disable: 0
  prefab: {fileID: 1731333903444514, guid: 5ff5d31105164c142a485ba310c859f2, type: 2}
  memberCount: 1
  portalType: 0
  portalCenter: {x: 44, y: 0}
  portalSize: {x: 0, y: -22}
  portalOpen: 1
  portalClose: 100
  numOfWaves: 100
  gapBetweenWaves: 1
  formationType: 1
  vectorToNext: {x: 0, y: 0}
