%YAML 1.1
%TAG !u! tag:unity3d.com,2011:
--- !u!1001 &100100000
Prefab:
  m_ObjectHideFlags: 1
  serializedVersion: 2
  m_Modification:
    m_TransformParent: {fileID: 0}
    m_Modifications: []
    m_RemovedComponents: []
  m_SourcePrefab: {fileID: 0}
  m_RootGameObject: {fileID: 1700622819186778}
  m_IsPrefabAsset: 1
--- !u!1 &1700622819186778
GameObject:
  m_ObjectHideFlags: 0
  m_CorrespondingSourceObject: {fileID: 0}
  m_PrefabInternal: {fileID: 100100000}
  serializedVersion: 6
  m_Component:
  - component: {fileID: 4639955714168386}
  - component: {fileID: 114921997748555418}
  m_Layer: 0
  m_Name: EnemyHeli
  m_TagString: Untagged
  m_Icon: {fileID: 0}
  m_NavMeshLayer: 0
  m_StaticEditorFlags: 0
  m_IsActive: 1
--- !u!4 &4639955714168386
Transform:
  m_ObjectHideFlags: 1
  m_CorrespondingSourceObject: {fileID: 0}
  m_PrefabInternal: {fileID: 100100000}
  m_GameObject: {fileID: 1700622819186778}
  m_LocalRotation: {x: -0, y: -0, z: -0, w: 1}
  m_LocalPosition: {x: 0, y: 0, z: 0}
  m_LocalScale: {x: 1, y: 1, z: 1}
  m_Children: []
  m_Father: {fileID: 0}
  m_RootOrder: 0
  m_LocalEulerAnglesHint: {x: 0, y: 0, z: 0}
--- !u!114 &114921997748555418
MonoBehaviour:
  m_ObjectHideFlags: 1
  m_CorrespondingSourceObject: {fileID: 0}
  m_PrefabInternal: {fileID: 100100000}
  m_GameObject: {fileID: 1700622819186778}
  m_Enabled: 1
  m_EditorHideFlags: 0
  m_Script: {fileID: 11500000, guid: 27af4328e733b6647bf97c39c1931782, type: 3}
  m_Name: 
  m_EditorClassIdentifier: 
  disable: 0
  prefab: {fileID: 1021594673651312, guid: a76ec543dd022d34bb0c39bd60276331, type: 2}
  memberCount: 2
  portalType: 0
  portalCenter: {x: 44, y: 15}
  portalSize: {x: 0, y: 5}
  portalOpen: 40
  portalClose: 60
  numOfWaves: 40
  gapBetweenWaves: 5
  formationType: 1
  vectorToNext: {x: 10, y: 0}
