%YAML 1.1
%TAG !u! tag:unity3d.com,2011:
--- !u!1001 &100100000
Prefab:
  m_ObjectHideFlags: 1
  serializedVersion: 2
  m_Modification:
    m_TransformParent: {fileID: 0}
    m_Modifications: []
    m_RemovedComponents: []
  m_SourcePrefab: {fileID: 0}
  m_RootGameObject: {fileID: 1675547376987324}
  m_IsPrefabAsset: 1
--- !u!1 &1675547376987324
GameObject:
  m_ObjectHideFlags: 0
  m_CorrespondingSourceObject: {fileID: 0}
  m_PrefabInternal: {fileID: 100100000}
  serializedVersion: 6
  m_Component:
  - component: {fileID: 4150770556105600}
  - component: {fileID: 114839532959098936}
  m_Layer: 1
  m_Name: AutoBeamSpawn
  m_TagString: Untagged
  m_Icon: {fileID: 0}
  m_NavMeshLayer: 0
  m_StaticEditorFlags: 0
  m_IsActive: 1
--- !u!4 &4150770556105600
Transform:
  m_ObjectHideFlags: 1
  m_CorrespondingSourceObject: {fileID: 0}
  m_PrefabInternal: {fileID: 100100000}
  m_GameObject: {fileID: 1675547376987324}
  m_LocalRotation: {x: -0, y: -0, z: -0, w: 1}
  m_LocalPosition: {x: 0, y: 0, z: 0}
  m_LocalScale: {x: 1, y: 1, z: 1}
  m_Children: []
  m_Father: {fileID: 0}
  m_RootOrder: 0
  m_LocalEulerAnglesHint: {x: 0, y: 0, z: 0}
--- !u!114 &114839532959098936
MonoBehaviour:
  m_ObjectHideFlags: 1
  m_CorrespondingSourceObject: {fileID: 0}
  m_PrefabInternal: {fileID: 100100000}
  m_GameObject: {fileID: 1675547376987324}
  m_Enabled: 1
  m_EditorHideFlags: 0
  m_Script: {fileID: 11500000, guid: d6de57607e7c80b4585c139655aaa9f7, type: 3}
  m_Name: 
  m_EditorClassIdentifier: 
  beamPrefab: {fileID: 1392352884257470, guid: 518dbcc850f616945bf897f9b33ce69c, type: 2}
  explosion: {fileID: 1560074041341920, guid: 2dde1d9806e935f43981ed769f46922b, type: 2}
  autoAssignBeamsExplosionCollisionLayer: 1
  damage: 5
  fireRate: 0.5
  weaponRadius: 30
  layersToTarget:
    serializedVersion: 2
    m_Bits: 1024
  ignoredTags: []
