%YAML 1.1
%TAG !u! tag:unity3d.com,2011:
--- !u!74 &7400000
AnimationClip:
  m_ObjectHideFlags: 0
  m_CorrespondingSourceObject: {fileID: 0}
  m_PrefabInternal: {fileID: 0}
  m_Name: Explosion
  serializedVersion: 6
  m_Legacy: 0
  m_Compressed: 0
  m_UseHighQualityCurve: 1
  m_RotationCurves: []
  m_CompressedRotationCurves: []
  m_EulerCurves: []
  m_PositionCurves: []
  m_ScaleCurves: []
  m_FloatCurves: []
  m_PPtrCurves:
  - curve:
    - time: 0
      value: {fileID: 21300000, guid: 7f2fb8b6d8821c84f99a9d7841666ef0, type: 3}
    - time: 0.016666668
      value: {fileID: 21300000, guid: 5287ad619a6efb549b6129cd66991cbf, type: 3}
    - time: 0.033333335
      value: {fileID: 21300000, guid: 8d82e76aa86b5df479ee3a9e70d3bd9b, type: 3}
    - time: 0.05
      value: {fileID: 21300000, guid: efc98951b97324148848557dc6a518a3, type: 3}
    - time: 0.06666667
      value: {fileID: 21300000, guid: 1fe7216c809d1a241a3a447fcab08359, type: 3}
    - time: 0.083333336
      value: {fileID: 21300000, guid: aab4ae1e837e42a419bb1917c42e509e, type: 3}
    - time: 0.1
      value: {fileID: 21300000, guid: c5357caa808123341a24a5b7242929f6, type: 3}
    - time: 0.11666667
      value: {fileID: 21300000, guid: ac62d4ee382845a449c0f82207d659fc, type: 3}
    - time: 0.13333334
      value: {fileID: 21300000, guid: a52d5b83929d2b948b737b3f55937d60, type: 3}
    - time: 0.15
      value: {fileID: 21300000, guid: 7cc76a9a779b283478f80a2567782f82, type: 3}
    - time: 0.16666667
      value: {fileID: 21300000, guid: 8a5598405edaceb4faa461c1e53341b1, type: 3}
    - time: 0.18333334
      value: {fileID: 21300000, guid: 01b896161bab3ef4eb57833ba0b06716, type: 3}
    - time: 0.2
      value: {fileID: 21300000, guid: 30d976514c0fbc9468c496e92e32ebd8, type: 3}
    - time: 0.21666667
      value: {fileID: 21300000, guid: 5a66956ee6563f6438fd8a66ad4975af, type: 3}
    - time: 0.23333333
      value: {fileID: 21300000, guid: f9e9d70855cf0a7479d2215473d375a2, type: 3}
    - time: 0.25
      value: {fileID: 21300000, guid: cac4b4bf1cec4964a8bf7da78137198c, type: 3}
    - time: 0.26666668
      value: {fileID: 21300000, guid: ab332a644819d8344a6cf2d800612bf1, type: 3}
    - time: 0.28333336
      value: {fileID: 21300000, guid: 4ae797c63188cbb43ac11db10d53d5d3, type: 3}
    - time: 0.30000004
      value: {fileID: 21300000, guid: 48e362e55bccb3b4ca483c136d906599, type: 3}
    - time: 0.31666672
      value: {fileID: 21300000, guid: 10802763bdec7bb4282adcf47b27c37b, type: 3}
    - time: 0.3333334
      value: {fileID: 21300000, guid: fd6b0febf103e8244922be5e06e2dc8f, type: 3}
    - time: 0.35000008
      value: {fileID: 21300000, guid: 90266d99aadf2124ba3eea5c19cec327, type: 3}
    - time: 0.36666676
      value: {fileID: 21300000, guid: ba5db1e814592bf4daf1b16f19b7a272, type: 3}
    - time: 0.38333344
      value: {fileID: 21300000, guid: 70b0bb7383934a94fb293dbc22bdc7b8, type: 3}
    - time: 0.40000013
      value: {fileID: 21300000, guid: 009a8a96524244a489260076bb91fdbf, type: 3}
    - time: 0.4166668
      value: {fileID: 21300000, guid: 7c530af2377270a499f95346c25b2d0e, type: 3}
    - time: 0.4333335
      value: {fileID: 21300000, guid: 0515ccb9b50f925488dfd6b7447e8100, type: 3}
    - time: 0.45000017
      value: {fileID: 21300000, guid: 3c79e7266b9e4c14d98155afe088afea, type: 3}
    - time: 0.46666685
      value: {fileID: 21300000, guid: 7126213927ca11740ad480291e489033, type: 3}
    - time: 0.48333353
      value: {fileID: 21300000, guid: 31cb0088965a91d418939179afb8c469, type: 3}
    - time: 0.5000002
      value: {fileID: 21300000, guid: 1e564d14ac0953441b35892785ef9f7a, type: 3}
    - time: 0.5166668
      value: {fileID: 21300000, guid: acbf4cc93680ed14481ee8115417661a, type: 3}
    - time: 0.5333335
      value: {fileID: 21300000, guid: 1eeafd999f7b9df4f88fe80bce7a184b, type: 3}
    - time: 0.55000013
      value: {fileID: 21300000, guid: c6df8678a7becee4c81a31b7fc27911c, type: 3}
    - time: 0.5666668
      value: {fileID: 21300000, guid: dd26dced6f3562042b7604b300b5a3df, type: 3}
    - time: 0.58333343
      value: {fileID: 21300000, guid: dfa91c76a0dceca4d9510db999da6121, type: 3}
    - time: 0.6000001
      value: {fileID: 21300000, guid: 2136563215c5ca64ca6141b69e7f24e6, type: 3}
    - time: 0.61666673
      value: {fileID: 21300000, guid: bf4ea2a55ed7e40438c647a15cb0e717, type: 3}
    - time: 0.6333334
      value: {fileID: 21300000, guid: d2d5459104abbc649b3eb6a5d1cc14d3, type: 3}
    - time: 0.65000004
      value: {fileID: 21300000, guid: fa319d870fd8a8949a66b1a62f8045f4, type: 3}
    - time: 0.6666667
      value: {fileID: 21300000, guid: d43728e03a3a17847b6e80bc2a79487f, type: 3}
    - time: 0.68333334
      value: {fileID: 21300000, guid: 3dcbf10a9411c3546a691334212d3e64, type: 3}
    - time: 0.7
      value: {fileID: 21300000, guid: 0abd83bc0d0c15540936a28716f048d1, type: 3}
    - time: 0.71666664
      value: {fileID: 21300000, guid: 6c498eb34fa7a284191e9c23796c8b31, type: 3}
    - time: 0.7333333
      value: {fileID: 21300000, guid: 2b48038f81820f94e93264d93acea778, type: 3}
    - time: 0.74999994
      value: {fileID: 21300000, guid: 01177b4893aa0174fa4079ad1bdd9137, type: 3}
    - time: 0.7666666
      value: {fileID: 21300000, guid: 73af956c093c4234daa8e8de43f99a5e, type: 3}
    - time: 0.78333324
      value: {fileID: 21300000, guid: 32fd4638f0174964a8c1068c92e69efb, type: 3}
    attribute: m_Sprite
    path: 
    classID: 212
    script: {fileID: 0}
  m_SampleRate: 60
  m_WrapMode: 0
  m_Bounds:
    m_Center: {x: 0, y: 0, z: 0}
    m_Extent: {x: 0, y: 0, z: 0}
  m_ClipBindingConstant:
    genericBindings:
    - serializedVersion: 2
      path: 0
      attribute: 0
      script: {fileID: 0}
      typeID: 212
      customType: 23
      isPPtrCurve: 1
    pptrCurveMapping:
    - {fileID: 21300000, guid: 7f2fb8b6d8821c84f99a9d7841666ef0, type: 3}
    - {fileID: 21300000, guid: 5287ad619a6efb549b6129cd66991cbf, type: 3}
    - {fileID: 21300000, guid: 8d82e76aa86b5df479ee3a9e70d3bd9b, type: 3}
    - {fileID: 21300000, guid: efc98951b97324148848557dc6a518a3, type: 3}
    - {fileID: 21300000, guid: 1fe7216c809d1a241a3a447fcab08359, type: 3}
    - {fileID: 21300000, guid: aab4ae1e837e42a419bb1917c42e509e, type: 3}
    - {fileID: 21300000, guid: c5357caa808123341a24a5b7242929f6, type: 3}
    - {fileID: 21300000, guid: ac62d4ee382845a449c0f82207d659fc, type: 3}
    - {fileID: 21300000, guid: a52d5b83929d2b948b737b3f55937d60, type: 3}
    - {fileID: 21300000, guid: 7cc76a9a779b283478f80a2567782f82, type: 3}
    - {fileID: 21300000, guid: 8a5598405edaceb4faa461c1e53341b1, type: 3}
    - {fileID: 21300000, guid: 01b896161bab3ef4eb57833ba0b06716, type: 3}
    - {fileID: 21300000, guid: 30d976514c0fbc9468c496e92e32ebd8, type: 3}
    - {fileID: 21300000, guid: 5a66956ee6563f6438fd8a66ad4975af, type: 3}
    - {fileID: 21300000, guid: f9e9d70855cf0a7479d2215473d375a2, type: 3}
    - {fileID: 21300000, guid: cac4b4bf1cec4964a8bf7da78137198c, type: 3}
    - {fileID: 21300000, guid: ab332a644819d8344a6cf2d800612bf1, type: 3}
    - {fileID: 21300000, guid: 4ae797c63188cbb43ac11db10d53d5d3, type: 3}
    - {fileID: 21300000, guid: 48e362e55bccb3b4ca483c136d906599, type: 3}
    - {fileID: 21300000, guid: 10802763bdec7bb4282adcf47b27c37b, type: 3}
    - {fileID: 21300000, guid: fd6b0febf103e8244922be5e06e2dc8f, type: 3}
    - {fileID: 21300000, guid: 90266d99aadf2124ba3eea5c19cec327, type: 3}
    - {fileID: 21300000, guid: ba5db1e814592bf4daf1b16f19b7a272, type: 3}
    - {fileID: 21300000, guid: 70b0bb7383934a94fb293dbc22bdc7b8, type: 3}
    - {fileID: 21300000, guid: 009a8a96524244a489260076bb91fdbf, type: 3}
    - {fileID: 21300000, guid: 7c530af2377270a499f95346c25b2d0e, type: 3}
    - {fileID: 21300000, guid: 0515ccb9b50f925488dfd6b7447e8100, type: 3}
    - {fileID: 21300000, guid: 3c79e7266b9e4c14d98155afe088afea, type: 3}
    - {fileID: 21300000, guid: 7126213927ca11740ad480291e489033, type: 3}
    - {fileID: 21300000, guid: 31cb0088965a91d418939179afb8c469, type: 3}
    - {fileID: 21300000, guid: 1e564d14ac0953441b35892785ef9f7a, type: 3}
    - {fileID: 21300000, guid: acbf4cc93680ed14481ee8115417661a, type: 3}
    - {fileID: 21300000, guid: 1eeafd999f7b9df4f88fe80bce7a184b, type: 3}
    - {fileID: 21300000, guid: c6df8678a7becee4c81a31b7fc27911c, type: 3}
    - {fileID: 21300000, guid: dd26dced6f3562042b7604b300b5a3df, type: 3}
    - {fileID: 21300000, guid: dfa91c76a0dceca4d9510db999da6121, type: 3}
    - {fileID: 21300000, guid: 2136563215c5ca64ca6141b69e7f24e6, type: 3}
    - {fileID: 21300000, guid: bf4ea2a55ed7e40438c647a15cb0e717, type: 3}
    - {fileID: 21300000, guid: d2d5459104abbc649b3eb6a5d1cc14d3, type: 3}
    - {fileID: 21300000, guid: fa319d870fd8a8949a66b1a62f8045f4, type: 3}
    - {fileID: 21300000, guid: d43728e03a3a17847b6e80bc2a79487f, type: 3}
    - {fileID: 21300000, guid: 3dcbf10a9411c3546a691334212d3e64, type: 3}
    - {fileID: 21300000, guid: 0abd83bc0d0c15540936a28716f048d1, type: 3}
    - {fileID: 21300000, guid: 6c498eb34fa7a284191e9c23796c8b31, type: 3}
    - {fileID: 21300000, guid: 2b48038f81820f94e93264d93acea778, type: 3}
    - {fileID: 21300000, guid: 01177b4893aa0174fa4079ad1bdd9137, type: 3}
    - {fileID: 21300000, guid: 73af956c093c4234daa8e8de43f99a5e, type: 3}
    - {fileID: 21300000, guid: 32fd4638f0174964a8c1068c92e69efb, type: 3}
  m_AnimationClipSettings:
    serializedVersion: 2
    m_AdditiveReferencePoseClip: {fileID: 0}
    m_AdditiveReferencePoseTime: 0
    m_StartTime: 0
    m_StopTime: 0.7999999
    m_OrientationOffsetY: 0
    m_Level: 0
    m_CycleOffset: 0
    m_HasAdditiveReferencePose: 0
    m_LoopTime: 0
    m_LoopBlend: 0
    m_LoopBlendOrientation: 0
    m_LoopBlendPositionY: 0
    m_LoopBlendPositionXZ: 0
    m_KeepOriginalOrientation: 0
    m_KeepOriginalPositionY: 1
    m_KeepOriginalPositionXZ: 0
    m_HeightFromFeet: 0
    m_Mirror: 0
  m_EditorCurves: []
  m_EulerEditorCurves: []
  m_HasGenericRootTransform: 0
  m_HasMotionFloatCurves: 0
  m_GenerateMotionCurves: 0
  m_Events: []
