%YAML 1.1
%TAG !u! tag:unity3d.com,2011:
--- !u!74 &7400000
AnimationClip:
  m_ObjectHideFlags: 0
  m_CorrespondingSourceObject: {fileID: 0}
  m_PrefabInternal: {fileID: 0}
  m_Name: firestar
  serializedVersion: 6
  m_Legacy: 0
  m_Compressed: 0
  m_UseHighQualityCurve: 1
  m_RotationCurves: []
  m_CompressedRotationCurves: []
  m_EulerCurves: []
  m_PositionCurves: []
  m_ScaleCurves: []
  m_FloatCurves: []
  m_PPtrCurves:
  - curve:
    - time: 0
      value: {fileID: 21300000, guid: 4d63afc205848d749a72b0b06519ee5b, type: 3}
    - time: 0.016666668
      value: {fileID: 21300000, guid: 7f7dc30a994577042b933590a7477dde, type: 3}
    - time: 0.033333335
      value: {fileID: 21300000, guid: fe0e5d32d497cb9429f61a6a18c7837f, type: 3}
    - time: 0.05
      value: {fileID: 21300000, guid: ff758c58532f2e144960a25638252764, type: 3}
    - time: 0.06666667
      value: {fileID: 21300000, guid: 8f02d869672b17d40a6f74c8b7f65679, type: 3}
    - time: 0.083333336
      value: {fileID: 21300000, guid: 0c207861ff6d30c4f9f1eaf303b1533c, type: 3}
    - time: 0.1
      value: {fileID: 21300000, guid: 2d511953d1ce4e949860f25820cb9b38, type: 3}
    - time: 0.11666667
      value: {fileID: 21300000, guid: 3a3de28b020e7d84881691bd0101ca8c, type: 3}
    - time: 0.13333334
      value: {fileID: 21300000, guid: 012ceef64367ef5409255c2e6ae2283a, type: 3}
    - time: 0.15
      value: {fileID: 21300000, guid: d77ec4fd807bfd84a91f2d98404f4828, type: 3}
    - time: 0.16666667
      value: {fileID: 21300000, guid: 83cb64fcbddc7cd4d87044dd558e470b, type: 3}
    - time: 0.18333334
      value: {fileID: 21300000, guid: 594c3a0133fa68242910e663b3d41562, type: 3}
    - time: 0.2
      value: {fileID: 21300000, guid: 8dfa96454f3b1c2408c11f798f68d89b, type: 3}
    - time: 0.21666667
      value: {fileID: 21300000, guid: 43777d4bb9c6be84db57521a37e394d7, type: 3}
    - time: 0.23333333
      value: {fileID: 21300000, guid: e47f2afb5835c5643bd861199cc73127, type: 3}
    - time: 0.25
      value: {fileID: 21300000, guid: 8ac551a6f3737fd44a06ecb9cf72028d, type: 3}
    attribute: m_Sprite
    path: 
    classID: 212
    script: {fileID: 0}
  m_SampleRate: 60
  m_WrapMode: 0
  m_Bounds:
    m_Center: {x: 0, y: 0, z: 0}
    m_Extent: {x: 0, y: 0, z: 0}
  m_ClipBindingConstant:
    genericBindings:
    - serializedVersion: 2
      path: 0
      attribute: 0
      script: {fileID: 0}
      typeID: 212
      customType: 23
      isPPtrCurve: 1
    pptrCurveMapping:
    - {fileID: 21300000, guid: 4d63afc205848d749a72b0b06519ee5b, type: 3}
    - {fileID: 21300000, guid: 7f7dc30a994577042b933590a7477dde, type: 3}
    - {fileID: 21300000, guid: fe0e5d32d497cb9429f61a6a18c7837f, type: 3}
    - {fileID: 21300000, guid: ff758c58532f2e144960a25638252764, type: 3}
    - {fileID: 21300000, guid: 8f02d869672b17d40a6f74c8b7f65679, type: 3}
    - {fileID: 21300000, guid: 0c207861ff6d30c4f9f1eaf303b1533c, type: 3}
    - {fileID: 21300000, guid: 2d511953d1ce4e949860f25820cb9b38, type: 3}
    - {fileID: 21300000, guid: 3a3de28b020e7d84881691bd0101ca8c, type: 3}
    - {fileID: 21300000, guid: 012ceef64367ef5409255c2e6ae2283a, type: 3}
    - {fileID: 21300000, guid: d77ec4fd807bfd84a91f2d98404f4828, type: 3}
    - {fileID: 21300000, guid: 83cb64fcbddc7cd4d87044dd558e470b, type: 3}
    - {fileID: 21300000, guid: 594c3a0133fa68242910e663b3d41562, type: 3}
    - {fileID: 21300000, guid: 8dfa96454f3b1c2408c11f798f68d89b, type: 3}
    - {fileID: 21300000, guid: 43777d4bb9c6be84db57521a37e394d7, type: 3}
    - {fileID: 21300000, guid: e47f2afb5835c5643bd861199cc73127, type: 3}
    - {fileID: 21300000, guid: 8ac551a6f3737fd44a06ecb9cf72028d, type: 3}
  m_AnimationClipSettings:
    serializedVersion: 2
    m_AdditiveReferencePoseClip: {fileID: 0}
    m_AdditiveReferencePoseTime: 0
    m_StartTime: 0
    m_StopTime: 0.26666668
    m_OrientationOffsetY: 0
    m_Level: 0
    m_CycleOffset: 0
    m_HasAdditiveReferencePose: 0
    m_LoopTime: 1
    m_LoopBlend: 0
    m_LoopBlendOrientation: 0
    m_LoopBlendPositionY: 0
    m_LoopBlendPositionXZ: 0
    m_KeepOriginalOrientation: 0
    m_KeepOriginalPositionY: 1
    m_KeepOriginalPositionXZ: 0
    m_HeightFromFeet: 0
    m_Mirror: 0
  m_EditorCurves: []
  m_EulerEditorCurves: []
  m_HasGenericRootTransform: 0
  m_HasMotionFloatCurves: 0
  m_GenerateMotionCurves: 0
  m_Events: []
